,name,taxid,rank,superkingdom,phylum,class,order,family,genus,species_group,species
0,Pseudomonas aeruginosa,287,species,2,1224,1236,72274,135621,286,136841,287
1,Listeria monocytogenes,1639,species,2,1239,91061,1385,186820,1637,0,1639
2,Escherichia coli,562,species,2,1224,1236,91347,543,561,0,562
3,Limosilactobacillus fermentum,1613,species,2,1239,91061,186826,33958,2742598,0,1613
4,Bacillus subtilis,1423,species,2,1239,91061,1385,186817,1386,653685,1423
5,Cryptococcus neoformans,5207,species,2759,5204,155616,5234,1884633,5206,0,5207
6,Enterococcus faecalis,1351,species,2,1239,91061,186826,81852,1350,0,1351
7,Saccharomyces cerevisiae,4932,species,2759,4890,4891,4892,4893,4930,0,4932
8,Salmonella enterica,28901,species,2,1224,1236,91347,543,590,0,28901
9,Staphylococcus aureus,1280,species,2,1239,91061,1385,90964,1279,0,1280
